Introduction to R
…
**Rows**: Only using Numeric Index.

**Columns**: Using both Numeric Index or Textual Keys.

---

**Using Numeric Index**

```r
bakers[,1] # primeira coluna
```

```
## # A tibble: 120 x 1
##    series
##    <fct> 
##  1 1     
##  2 1     
##  3 1     
##  4 1     
##  5 1     
##  6 1     
##  7 1     
##  8 1     
##  9 1     
## 10 1     
## # … with 110 more rows
```
…
```r
# Ou

bakers[,"hometown"]
```

```
## # A tibble: 120 x 1
##    hometown             
##    <chr>                
##  1 Essex                
##  2 Milton Keynes        
##  3 Bradford             
##  4 Birmingham           
##  5 St Albans            
##  6 Midlothian, Scotland 
##  7 Manchester           
##  8 South Wales          
##  9 Midhurst, West Sussex
## 10 Poynton, Cheshire    
## # … with 110 more rows
```
…
