Tidyverse II: Tidyr and Stringr
…
- Saving one variable per column facilitates manipulation operations (R works better with column vectors).

- Integrates with other `tidyverse` packages.

---

## Tidy Data: Gapminder

```r
library(gapminder)
gapminder 
```

```
## # A tibble: 1,704 x 6
##    country     continent  year lifeExp      pop gdpPercap
##    <fct>       <fct>     <int>   <dbl>    <int>     <dbl>
##  1 Afghanistan Asia       1952    28.8  8425333      779.
##  2 Afghanistan Asia       1957    30.3  9240934      821.
##  3 Afghanistan Asia       1962    32.0 10267083      853.
##  4 Afghanistan Asia       1967    34.0 11537966      836.
##  5 Afghanistan Asia       1972    36.1 13079460      740.
##  6 Afghanistan Asia       1977    38.4 14880372      786.
##  7 Afghanistan Asia       1982    39.9 12881816      978.
##  8 Afghanistan Asia       1987    40.8 13867957      852.
##  9 Afghanistan Asia       1992    41.7 16317921      649.
## 10 Afghanistan Asia       1997    41.8 22227415      635.
## # … with 1,694 more rows
```
…
---

## Stringr + Mutate

Easy to create new variables. 

```r
cand %>%
  select(NOME_URNA_CANDIDATO) %>%
  mutate(nome_minusculo=str_to_lower(NOME_URNA_CANDIDATO))
```

```
## # A tibble: 8,588 x 2
##    NOME_URNA_CANDIDATO    nome_minusculo        
##    <chr>                  <chr>                 
##  1 "PASTOR MANUEL MARCOS" "pastor manuel marcos"
##  2 "JUNIOR PARIS DAKAR"   "junior paris dakar"  
##  3 "RUDILEI ESTRELA"      "rudilei estrela"     
##  4 "NELSON SALES"         "nelson sales"        
##  5 "EURICO CORDEIRO "     "eurico cordeiro "    
##  6 "DJÊ CAVALCANTE"       "djê cavalcante"      
##  7 "PAULO SORIANO"        "paulo soriano"       
##  8 "JESUS SÉRGIO"         "jesus sérgio"        
##  9 "CHICO DOIDO DA SAÚDE" "chico doido da saúde"
## 10 "CABRAL"               "cabral"              
## # … with 8,578 more rows
```
…
