APIs
…
---
## Cleaning Jsons

```r
# Cleaning Jsons
output <- fromJSON(json_fogo_cruzado) %>%
              tibble::as_tibble()
output
```

```
## # A tibble: 36 x 9
##    CidadeId EstadoId Cidade             CodigoIBGE Gentilico     Populacao  Area
##       <int>    <int> <chr>                   <int> <chr>             <int> <int>
##  1     3253       17 Goiana                2606200 "goianense"       75644 44581
##  2     3185       17 Abreu e Lima          2600054 "abreu-limen…     94429 12619
##  3     3196       17 Araçoiaba             2601052 "araçoiabens…     18156  9638
##  4     3215       17 Cabo de Santo Ago…    2602902 "cabense"        185025 44874
##  5     3221       17 Camaragibe            2603454 "camaragiben…    144466  5126
##  6     3259       17 Igarassu              2606804 "igarassuano…    102021 30556
##  7     3261       17 Ilha de Itamaracá     2607604 "itamaracaen…     21884  6668
##  8     3264       17 Ipojuca               2607208 "ipojuquense"     80637 52711
##  9     3270       17 Itapissuma            2607752 "itapissumen…     23769  7424
## 10     3272       17 Jaboatão dos Guar…    2607901 "jaboatãoens…    644620 25869
## # … with 26 more rows, and 2 more variables: DensidadeDemografica <chr>,
## #   PIBPrecoCorrente <lgl>
```
…
```r
# GET
response <- GET(api,
              add_headers('Authorization' = paste("Bearer", token, sep = " ")))

output <- jsonlite::fromJSON(httr::content(response, as="text", encoding = "UTF-8")) %>%
    tibble::as_tibble()

output
```

```
## # A tibble: 3,334 x 67
##    id_ocorrencia local_ocorrencia             latitude_ocorren… longitude_ocorr…
##            <int> <chr>                                    <dbl>            <dbl>
##  1         26653 Parque Sao Jose, Belford Ro…             -22.7            -43.3
##  2         24842 Malvinas, Vila Kennedy - Ba…             -22.9            -43.5
##  3         23155 R. Carbonita - Bráz De Pina…             -22.8            -43.3
##  4         23157 Pavão-Pavãozinho, Copacaban…             -23.0            -43.2
##  5         23158 R. Miguel Cervantes - Cacha…             -22.9            -43.3
##  6         23159 Senador Camará, Rio de Jane…             -22.9            -43.5
##  7         23162 R. Mario Behring - Vila Ros…             -22.7            -43.3
##  8         23163 R. Miguel Cervantes - Cacha…             -22.9            -43.3
##  9         23169 Copacabana - Copacabana, Ri…             -23.0            -43.2
## 10         23170 Mangueirinha, Periquitos, D…             -22.8            -43.3
## # … with 3,324 more rows, and 63 more variables: data_ocorrencia <chr>,
## #   hora_ocorrencia <chr>, presen_agen_segur_ocorrencia <int>,
## #   qtd_morto_civil_ocorrencia <int>, qtd_morto_agen_segur_ocorrencia <int>,
## #   qtd_ferido_civil_ocorrencia <int>, qtd_ferido_agen_segur_ocorrencia <int>,
## #   estado_id <int>, cidade_id <int>, nome_cidade <chr>, cod_ibge_cidade <int>,
## #   gentilico_cidade <chr>, populacao_cidade <int>, area_cidade <int>,
## #   densidade_demo_cidade <chr>, nome_estado <chr>, uf_estado <chr>,
## #   cod_ibge_estado <int>, homem_qtd_mortos_oc <int>,
## #   homem_qtd_feridos_oc <int>, mulher_qtd_mortos_oc <int>,
…
