Twitter API
…
- Access to tweets from the last 6-9 days.

- 18,000 tweets in every 15-minute hit.

To use this function, you need to enter a search term. Twitter's advanced search helps you format the appropriate search terms when your interest is in more than a single word.

```r
bolsonaro_tweets<-search_tweets("bolsonaro", n=50, include_rts = TRUE)

bolsonaro_tweets
```

```
## # A tibble: 50 x 90
##    user_id   status_id   created_at          screen_name  text           source 
##    <chr>     <chr>       <dttm>              <chr>        <chr>          <chr>  
##  1 78420115… 1432911386… 2021-09-01 03:41:11 PaulaRenata… "Mexeu, fedeu… Twitte…
##  2 13866563… 1432911380… 2021-09-01 03:41:10 banana_ginna "ado ado ado … Twitte…
##  3 19393726  1432911379… 2021-09-01 03:41:09 jcruzeta     "Nem Lula nem… Twitte…
##  4 867256615 1432911377… 2021-09-01 03:41:09 RosadiogoRo… "Barroso e Fu… Twitte…
##  5 65490398  1432911375… 2021-09-01 03:41:08 RealMinerRR  "Na passagem … Twitte…
##  6 12673424… 1432911374… 2021-09-01 03:41:08 alinedanelli "Bolsonaro co… Twitte…
##  7 47141131… 1432911370… 2021-09-01 03:41:07 taureis_     "Moleque de r… Twitte…
##  8 25939877… 1432911370… 2021-09-01 03:41:07 lima8641     "Estamos nos … Twitte…
##  9 13477001… 1432911368… 2021-09-01 03:41:07 Mayflower_21 "Everyone in … Twitte…
## 10 193201884 1432911366… 2021-09-01 03:41:06 PraMariza    "Mais um ataq… Twitte…
## # … with 40 more rows, and 84 more variables: display_text_width <dbl>,
## #   reply_to_status_id <chr>, reply_to_user_id <chr>,
## #   reply_to_screen_name <chr>, is_quote <lgl>, is_retweet <lgl>,
## #   favorite_count <int>, retweet_count <int>, quote_count <int>,
## #   reply_count <int>, hashtags <list>, symbols <list>, urls_url <list>,
## #   urls_t.co <list>, urls_expanded_url <list>, media_url <list>,
## #   media_t.co <list>, media_expanded_url <list>, media_type <list>,
## #   ext_media_url <list>, ext_media_t.co <list>, ext_media_expanded_url <list>,
## #   ext_media_type <chr>, mentions_user_id <list>, mentions_screen_name <list>,
…
---

## get the timelines

Allows you to get the timeline of certain profiles

```r
timelines_covid <- get_timelines(c("renancalheiros", "ottoalencar", "EduGiraoOficial"), n=100)
timelines_covid
```

```
## # A tibble: 300 x 90
##    user_id  status_id   created_at          screen_name  text            source 
##    <chr>    <chr>       <dttm>              <chr>        <chr>           <chr>  
##  1 1650330… 1432027638… 2021-08-29 17:09:29 renancalhei… "A CPI vem mos… Twitte…
##  2 1650330… 1431997581… 2021-08-29 15:10:03 renancalhei… "Lúcido, claro… Twitte…
##  3 1650330… 1431620109… 2021-08-28 14:10:07 renancalhei… "Tentaram na J… Twitte…
##  4 1650330… 1430981496… 2021-08-26 19:52:29 renancalhei… "No começo era… Twitte…
##  5 1650330… 1430611896… 2021-08-25 19:23:50 renancalhei… "O depoimento … Twitte…
##  6 1650330… 1430209716… 2021-08-24 16:45:43 renancalhei… "Os atravessad… Twitte…
##  7 1650330… 1429811822… 2021-08-23 14:24:37 renancalhei… "Os coices aut… Twitte…
##  8 1650330… 1428839362… 2021-08-20 22:00:25 renancalhei… "Nunca se viu … Twitte…
##  9 1650330… 1428423185… 2021-08-19 18:26:40 renancalhei… "A CPI tentou … Twitte…
## 10 1650330… 1428103359… 2021-08-18 21:15:48 renancalhei… "Em junho, por… Twitte…
## # … with 290 more rows, and 84 more variables: display_text_width <dbl>,
## #   reply_to_status_id <chr>, reply_to_user_id <chr>,
## #   reply_to_screen_name <chr>, is_quote <lgl>, is_retweet <lgl>,
## #   favorite_count <int>, retweet_count <int>, quote_count <int>,
## #   reply_count <int>, hashtags <list>, symbols <list>, urls_url <list>,
## #   urls_t.co <list>, urls_expanded_url <list>, media_url <list>,
## #   media_t.co <list>, media_expanded_url <list>, media_type <list>,
## #   ext_media_url <list>, ext_media_t.co <list>, ext_media_expanded_url <list>,
## #   ext_media_type <chr>, mentions_user_id <list>, mentions_screen_name <list>,
…
---

## Recent likes

```r
favs <- get_favorites(c("renancalheiros", "ottoalencar", "EduGiraoOficial"))
favs
```

```
## # A tibble: 1,054 x 91
##    user_id   status_id   created_at          screen_name  text           source 
##  * <chr>     <chr>       <dttm>              <chr>        <chr>          <chr>  
##  1 10076638… 1430938457… 2021-08-26 17:01:28 ZeDirceu_    "Ao menos uma… Twitte…
##  2 24459217… 1429822714… 2021-08-23 15:07:54 OmarAzizSen… "Tentam provo… Twitte…
##  3 14013635… 1429812134… 2021-08-23 14:25:52 IgorMontiel  "@renancalhei… Twitte…
##  4 11533434… 1428039080… 2021-08-18 17:00:23 panchitobla… "@renancalhei… Twitte…
##  5 13452063… 1425884844… 2021-08-12 18:20:13 desmentindo… "Aos cuidados… Twitte…
##  6 13853772… 1424920471… 2021-08-10 02:28:08 GabideLB     "@rodaviva @r… Twitte…
##  7 10490849… 1424917967… 2021-08-10 02:18:11 bolsoregrets "Talvez se um… Twitte…
##  8 84718339… 1424911851… 2021-08-10 01:53:53 vanessasoar… "Que imbecil.… Twitte…
##  9 13838911… 1424898887… 2021-08-10 01:02:22 camarotedac… "🍿 Boa noite,… Twitte…
## 10 13838911… 1410243643… 2021-06-30 14:27:40 camarotedac… "Renan pede p… Twitte…
## # … with 1,044 more rows, and 85 more variables: display_text_width <dbl>,
## #   reply_to_status_id <chr>, reply_to_user_id <chr>,
## #   reply_to_screen_name <chr>, is_quote <lgl>, is_retweet <lgl>,
## #   favorite_count <int>, retweet_count <int>, quote_count <int>,
## #   reply_count <int>, hashtags <list>, symbols <list>, urls_url <list>,
## #   urls_t.co <list>, urls_expanded_url <list>, media_url <list>,
## #   media_t.co <list>, media_expanded_url <list>, media_type <list>,
## #   ext_media_url <list>, ext_media_t.co <list>, ext_media_expanded_url <list>,
## #   ext_media_type <chr>, mentions_user_id <list>, mentions_screen_name <list>,
…
---
## And followers

```r
follow_renan <- get_followers("renancalheiros")
follow_renan
```

```
## # A tibble: 5,000 x 1
##    user_id            
##    <chr>              
##  1 1432793231721439237
##  2 1426919515141648384
##  3 3128113588         
##  4 1206789768073363456
##  5 1181730315947130880
##  6 3599905463         
##  7 3254377181         
##  8 1420210069082415105
##  9 1399326700715003905
## 10 1432892709317091328
## # … with 4,990 more rows
```
…
